Id,SalePrice
1461,130643.965953413
1462,170907.055184707
1463,186064.56004521
1464,202468.864506404
1465,200385.971930395
1466,172008.870691822
1467,185412.31521475
1468,163364.660207559
1469,201204.76276524
1470,123870.105444229
1471,203759.193363811
1472,101269.836958899
1473,96714.9329823969
1474,154724.73146405
1475,122859.87958439
1476,363393.621864648
1477,243155.072090483
1478,331775.651148231
1479,300726.657810543
1480,459619.759440942
1481,301010.780658017
1482,217726.506545952
1483,182084.316535109
1484,171744.373845675
1485,194461.903252689
1486,207691.159008582
1487,323458.818782171
1488,251842.18880288
1489,188280.97842695
1490,245597.369645705
1491,200880.717780534
1492,90709.4707661171
1493,194211.95811142
1494,285305.107237703
1495,287992.08832624
1496,238066.868868039
1497,180573.170019207
1498,164311.899135777
1499,164085.350518778
1500,152537.157662215
1501,183916.524475463
1502,155959.532951441
1503,286244.711288147
1504,248242.887581837
1505,226681.125376409
1506,195966.342347978
1507,257196.872825893
1508,203377.186399131
1509,162085.334540563
1510,140319.209432199
1511,148968.960474218
1512,187680.633580873
1513,144685.469145329
1514,170590.577746511
1515,224869.81900617
1516,160630.106404031
1517,179046.419263358
1518,139751.541112033
1519,228797.106036015
1520,127740.054986745
1521,131986.357000911
1522,186112.977362598
1523,109195.356793758
1524,125099.180962373
1525,120120.95318023
1526,102724.187376599
1527,105254.736212697
1528,148681.423346035
1529,143609.032555099
1530,196720.672756133
1531,136970.978434643
1532,112312.877646598
1533,162415.855688774
1534,127701.408287122
1535,173130.305395974
1536,109663.363335073
1537,77971.2201295021
1538,180672.173782301
1539,216564.631013174
1540,109353.047090459
1541,148152.958246558
1542,148400.195354581
1543,201087.733183791
1544,97387.9181009294
1545,125274.145035463
1546,140505.483053491
1547,152034.068618696
1548,143269.159166443
1549,120963.259623225
1550,130168.586369058
1551,126779.262331615
1552,144852.837958395
1553,156129.098470351
1554,121644.137989044
1555,179143.560693323
1556,82914.2230169549
1557,94587.6037930825
1558,101907.116717546
1559,86218.987686736
1560,137920.388962671
1561,141344.323157549
1562,135026.464541139
1563,122357.409227118
1564,177041.937306559
1565,154609.063492121
1566,247097.870199041
1567,75055.5102665234
1568,220593.595120457
1569,134645.583384326
1570,150326.484023286
1571,131668.061496572
1572,150113.468865173
1573,251887.131988172
1574,121373.932071833
1575,244989.036568968
1576,253336.629809959
1577,192623.150254606
1578,137300.402052522
1579,142766.466100865
1580,199250.46490343
1581,167081.379008294
1582,127474.491212761
1583,310402.513181282
1584,229598.941623938
1585,149905.568636281
1586,83755.8204138498
1587,107212.93408284
1588,156844.278061136
1589,112149.756842566
1590,141530.698923963
1591,95564.6445849046
1592,121255.466199986
1593,126253.096144171
1594,171173.056236198
1595,106625.863975897
1596,227643.008916078
1597,181606.83903189
1598,201940.03620108
1599,204838.506631558
1600,195000.495530426
1601,77055.1325064154
1602,112688.276212123
1603,85675.1039655125
1604,275667.556328628
1605,260862.030638777
1606,179996.583218962
1607,188776.365155894
1608,214797.503539827
1609,186224.313805245
1610,147683.864597624
1611,140204.753045986
1612,190721.340707415
1613,172705.698207812
1614,137778.983515051
1615,107914.795033155
1616,75320.100215133
1617,98049.5448158549
1618,129517.317684284
1619,153414.217031506
1620,178691.394056049
1621,143710.058735275
1622,138299.976911794
1623,280282.78046735
1624,217274.206926697
1625,119648.168801472
1626,175118.084272011
1627,192050.219718571
1628,287254.673808397
1629,183546.003646482
1630,334318.397666577
1631,206734.100835522
1632,234029.151487725
1633,180710.684238506
1634,188396.902509895
1635,180587.314626797
1636,159964.153318205
1637,202971.60350476
1638,214013.644569381
1639,187083.395230857
1640,269472.204198669
1641,184219.929916318
1642,245548.640027033
1643,236771.574164979
1644,245766.116830185
1645,231266.1221219
1646,168161.532333062
1647,169343.567934913
1648,127816.159442423
1649,147539.157200365
1650,127719.776899951
1651,131309.695517044
1652,101402.95579508
1653,106653.898988454
1654,145792.734455136
1655,146187.527645213
1656,142421.860014447
1657,146746.754915341
1658,148908.502303661
1659,128441.615884938
1660,162350.826035804
1661,439834.346309654
1662,390357.786471392
1663,385241.797730809
1664,499198.678695796
1665,338670.594891567
1666,327029.803061723
1667,353930.262979992
1668,360376.167256648
1669,331176.231081266
1670,365571.104996433
1671,255377.709729345
1672,418999.777096891
1673,280952.383882251
1674,252366.714036652
1675,191928.702777313
1676,192259.977299627
1677,210180.034048664
1678,489819.429256697
1679,358254.421687959
1680,341233.785266814
1681,295650.324088954
1682,301370.534730349
1683,185844.628447959
1684,195532.546394993
1685,181782.685582729
1686,182300.485264648
1687,182654.820920588
1688,202543.660882474
1689,204529.599222211
1690,207487.36668681
1691,196616.65742085
1692,280988.155705046
1693,182940.665878275
1694,181450.206816937
1695,168702.27238374
1696,269210.448822431
1697,173802.786860706
1698,334219.086213361
1699,304425.942447166
1700,245124.865534314
1701,274521.204000231
1702,256653.898476837
1703,254157.928915491
1704,283939.370845004
1705,258380.354827462
1706,430558.881181234
1707,213932.694226687
1708,199663.360660191
1709,289168.638063132
1710,235268.022448237
1711,279488.849544943
1712,254264.403113515
1713,271992.496203715
1714,223510.090477772
1715,206485.561724498
1716,194345.558936522
1717,187284.284191465
1718,148289.394689767
1719,208565.168610558
1720,253211.232560727
1721,183816.926313181
1722,142615.634915065
1723,169519.161423986
1724,208358.985564803
1725,238516.126379985
1726,198716.091946007
1727,155855.029250818
1728,189879.435532684
1729,165961.121042607
1730,185166.111212359
1731,116515.630633646
1732,132657.008303322
1733,115937.187506884
1734,120837.891613605
1735,147693.197489916
1736,113963.996710687
1737,336459.270906931
1738,245109.342003347
1739,276799.952272115
1740,199726.696351444
1741,188221.848728006
1742,168725.418399376
1743,176913.183942397
1744,317931.894496288
1745,214868.841683539
1746,236763.239786664
1747,236123.452047745
1748,235408.741241648
1749,159523.770666727
1750,146728.247675838
1751,262997.814981574
1752,119879.588812614
1753,152025.527152496
1754,217408.077155085
1755,173620.458685455
1756,137279.239589672
1757,122982.668993921
1758,153064.017279797
1759,170913.681689949
1760,171901.651904277
1761,165625.515677607
1762,184995.313975459
1763,176319.755221018
1764,109267.82978291
1765,191371.898161373
1766,197231.773285869
1767,240924.090614491
1768,152072.535088941
1769,189086.59773711
1770,160576.491384808
1771,122709.00015171
1772,141290.881813089
1773,135173.004351383
1774,157130.005805844
1775,140791.909795512
1776,122376.44620117
1777,104537.914133508
1778,155796.506035081
1779,115161.787884513
1780,185411.462129462
1781,129732.40083306
1782,88334.8248789197
1783,141466.822339413
1784,102903.267106262
1785,137430.615682699
1786,171903.469724728
1787,169938.320136221
1788,70157.8964943973
1789,109336.314257987
1790,62856.4394748151
1791,211669.806225498
1792,169143.812003921
1793,135205.770438704
1794,166399.335688437
1795,136733.242986761
1796,130073.236496291
1797,142614.763692666
1798,115759.951301169
1799,114009.111913269
1800,114843.744571413
1801,130044.154257212
1802,149979.025585099
1803,152404.868395382
1804,153287.399039262
1805,143921.360262789
1806,139810.15335914
1807,145081.154933557
1808,124473.377435509
1809,123879.280708978
1810,147239.510567641
1811,94267.3806662893
1812,100634.55367918
1813,128310.431701113
1814,90859.2212200669
1815,62034.7360141146
1816,106448.482298331
1817,111675.190066332
1818,172059.121305032
1819,143126.970722268
1820,58477.1685767829
1821,117439.137902367
1822,145161.65645142
1823,44672.0383955038
1824,135702.010178964
1825,137074.093942113
1826,94219.2255059037
1827,98879.302188791
1828,137700.792409608
1829,132988.179896763
1830,142596.31805059
1831,164314.168160853
1832,103143.021892002
1833,139111.602958321
1834,127207.724646985
1835,121982.937774242
1836,134657.773277078
1837,102536.084004436
1838,122037.885308018
1839,102961.323719842
1840,148905.422000751
1841,144879.226123553
1842,75980.1079659611
1843,143551.544246763
1844,135314.652475766
1845,143831.518213542
1846,151576.372402995
1847,159240.786689173
1848,53330.9930815513
1849,122131.291896881
1850,114440.89783338
1851,168424.954634838
1852,133692.613384207
1853,135250.314261486
1854,183721.196478375
1855,166400.346676374
1856,228227.679852753
1857,159960.398146829
1858,160472.147856124
1859,123662.764851337
1860,174964.974449385
1861,122729.729281832
1862,309287.243773457
1863,306478.70792221
1864,306505.644236239
1865,365937.459930103
1866,359839.286609951
1867,246452.790766393
1868,310234.657826586
1869,218999.047552094
1870,241652.99674538
1871,270928.944155628
1872,180855.116865556
1873,235382.104386799
1874,156362.465367472
1875,206805.027080253
1876,196886.476618693
1877,222680.205028342
1878,219925.264796301
1879,132166.216628781
1880,141780.471862384
1881,257708.298190987
1882,261086.371817318
1883,197253.793146181
1884,211870.351574152
1885,259999.26059792
1886,300857.567359043
1887,225527.555189765
1888,284992.629455783
1889,177966.893296319
1890,131715.035621992
1891,135156.975418139
1892,99218.851233967
1893,138492.854396621
1894,129377.556294943
1895,151826.717460232
1896,139458.33048848
1897,121560.209985357
1898,121953.971721064
1899,149622.772682265
1900,147000.486700746
1901,168364.067245913
1902,142400.924209736
1903,217073.622709264
1904,136582.964242928
1905,183003.677055637
1906,158111.482239236
1907,204848.021413623
1908,119004.773972649
1909,145847.498559583
1910,131759.164701825
1911,198458.917057977
1912,306848.42180802
1913,155160.190601216
1914,74434.4189338243
1915,298071.919273956
1916,69620.352557082
1917,266081.287560036
1918,148359.049809838
1919,191370.219985008
1920,172987.633712725
1921,396778.806735473
1922,350361.673577188
1923,232719.676207632
1924,224214.598737806
1925,216078.861260863
1926,392163.223373997
1927,147483.148239335
1928,158704.132551641
1929,136800.428916032
1930,132203.091871898
1931,150027.334090628
1932,143359.047542296
1933,188386.817227511
1934,181506.668439868
1935,171126.880941888
1936,187498.558397154
1937,179721.48685601
1938,177866.808141421
1939,257922.182016539
1940,194128.797573951
1941,175050.49243097
1942,184632.132300403
1943,208482.020069808
1944,325567.500173411
1945,371917.927219404
1946,158708.973916506
1947,332288.724919369
1948,183532.296562877
1949,266370.654033519
1950,203372.096638556
1951,269617.727745733
1952,237136.225756878
1953,176697.217282463
1954,205679.950313547
1955,137788.333001993
1956,340971.806130134
1957,162158.233298336
1958,300339.943596443
1959,150807.843350958
1960,120332.753492694
1961,118543.13631678
1962,100835.67671151
1963,115485.718469848
1964,105424.921451995
1965,143559.43981928
1966,145219.37621412
1967,286361.160609749
1968,382281.125318049
1969,380340.503727251
1970,413181.166597758
1971,482982.171735713
1972,384147.087969539
1973,273938.361082978
1974,326192.278683905
1975,500398.479017774
1976,273364.976537383
1977,356716.420218377
1978,333769.283111483
1979,327935.235824875
1980,197697.533249887
1981,360825.895392144
1982,226591.051972069
1983,215090.041334951
1984,174761.397140145
1985,224221.009871963
1986,222773.122542761
1987,190941.650770549
1988,182000.438685818
1989,205411.903202876
1990,219678.897640779
1991,215145.338152544
1992,227943.28729893
1993,188706.698030099
1994,250557.690356626
1995,188416.938043873
1996,276560.535761693
1997,334565.430560773
1998,313809.071371472
1999,272545.588590709
2000,303147.292113803
2001,256981.274380977
2002,259213.697439481
2003,259004.309941244
2004,273039.0013721
2005,259569.191517849
2006,223477.544072842
2007,253636.882930489
2008,203708.561580129
2009,196468.18146413
2010,201501.797549363
2011,160370.601235241
2012,181764.494035884
2013,184007.456420975
2014,191785.157039827
2015,208543.19854483
2016,194334.089523662
2017,204218.761233362
2018,123263.62815572
2019,150606.196597381
2020,104380.300816065
2021,111439.018130405
2022,190095.710646852
2023,151495.299604651
2024,268559.297838157
2025,356168.00920958
2026,174822.504558942
2027,151779.157617727
2028,164484.117540011
2029,154504.39505275
2030,293519.400962975
2031,277438.104180272
2032,296543.640527925
2033,287877.985705802
2034,173605.087041738
2035,213897.7255558
2036,212104.371735233
2037,215828.802799764
2038,369062.713772579
2039,214569.172671625
2040,351993.578573564
2041,299121.679493723
2042,205202.258331096
2043,178168.791056538
2044,187314.979945154
2045,223778.506176134
2046,154630.61866688
2047,149080.98835517
2048,146088.528953628
2049,146606.580583789
2050,187968.393692645
2051,105454.569074296
2052,123035.659760748
2053,151528.687698348
2054,91823.5821308788
2055,158981.951423585
2056,149087.126788998
2057,115758.604520618
2058,219544.445647156
2059,138387.070752852
2060,182672.093673099
2061,188457.199742764
2062,124997.962218489
2063,115723.944406444
2064,138527.345662956
2065,119339.213230714
2066,173115.112347848
2067,124882.220841134
2068,152679.921408193
2069,95192.0369685728
2070,111420.986560043
2071,98955.8724028628
2072,139040.283214546
2073,143519.937417276
2074,191053.129244653
2075,148403.529028396
2076,132143.557237545
2077,146635.125770278
2078,116751.913898616
2079,142337.484200267
2080,121454.146124966
2081,123865.12496513
2082,137875.909952116
2083,147972.830922174
2084,108989.340150342
2085,115761.158826617
2086,136588.128713847
2087,133156.598919713
2088,91741.8414631862
2089,71409.8748328135
2090,133257.221362231
2091,99733.9133351053
2092,134720.099756525
2093,150784.229274601
2094,130079.283274749
2095,156268.913609786
2096,80252.4849354063
2097,101131.36213379
2098,158962.673540449
2099,66616.9101674194
2100,85966.6307273617
2101,102118.144051988
2102,146855.388096037
2103,93888.5707956421
2104,148065.283997146
2105,136093.368379185
2106,62328.0504722677
2107,201567.326061687
2108,118561.24491943
2109,112415.693548691
2110,132214.561912173
2111,166772.744714241
2112,136376.021755235
2113,131406.511213977
2114,116989.643698689
2115,174071.926881256
2116,115708.753570859
2117,150350.554125246
2118,126427.681704195
2119,112773.1348419
2120,116871.029602394
2121,117131.185574098
2122,108642.181484069
2123,93023.4837468779
2124,178416.334411905
2125,135651.352393824
2126,131349.324891268
2127,165322.623783254
2128,144850.52021323
2129,104455.515371528
2130,140995.980674027
2131,167003.363356411
2132,113054.544246373
2133,121793.630003614
2134,122722.465069898
2135,103410.167548746
2136,60420.7746444276
2137,118672.115315767
2138,145109.555972044
2139,146087.587778035
2140,150931.491168895
2141,161434.856363511
2142,122485.360911132
2143,134703.893353234
2144,105679.271858462
2145,151251.460346995
2146,179683.002486166
2147,147763.369252805
2148,148965.964825603
2149,166739.093448381
2150,225617.770602065
2151,124396.386264209
2152,188159.012441362
2153,190712.400939517
2154,114576.941755147
2155,151526.40873115
2156,272501.739194485
2157,242455.828369874
2158,236527.881568232
2159,216155.776359099
2160,190545.769041055
2161,254855.172777845
2162,416571.043178943
2163,374577.350450312
2164,250459.094623246
2165,191003.757086835
2166,165236.449040763
2167,222668.641871015
2168,198192.680827539
2169,205603.901178088
2170,223455.555683311
2171,158640.970626413
2172,147484.160654768
2173,166622.297235829
2174,235815.245767345
2175,312286.446294242
2176,309893.044301607
2177,243639.764651976
2178,233171.678393952
2179,149324.795301535
2180,230155.946181875
2181,202369.825450538
2182,232385.206879307
2183,201570.728698448
2184,131392.582300901
2185,128702.877953953
2186,162637.156084042
2187,153580.992092824
2188,167324.295331634
2189,252968.4442488
2190,86956.8763911961
2191,87155.0613498015
2192,84702.1579310852
2193,130482.806340421
2194,115323.768072852
2195,113092.045568194
2196,123714.407302594
2197,125732.120949898
2198,165931.68898302
2199,191620.072690633
2200,138544.025713856
2201,129442.234011912
2202,206045.137509894
2203,117768.353878107
2204,171780.167189911
2205,104931.378408016
2206,137511.015787058
2207,208248.114068062
2208,242490.783818935
2209,215050.823667242
2210,130197.152056026
2211,120338.288973958
2212,125555.762855706
2213,110599.019099142
2214,142719.671435657
2215,99733.3201893948
2216,158863.401854549
2217,88686.9581580964
2218,95550.8448655883
2219,89824.4384737268
2220,84680.4057162398
2221,298706.222587842
2222,269834.131213035
2223,286569.776558074
2224,218703.704718345
2225,139392.175862297
2226,203867.588606536
2227,209502.927251596
2228,278179.671991702
2229,255749.050098653
2230,145040.610527
2231,204649.520575985
2232,180826.884695072
2233,199243.85340723
2234,266915.209491082
2235,234898.744870287
2236,272466.629640909
2237,331600.876258959
2238,210536.983970493
2239,134296.782651533
2240,172420.170145251
2241,159322.273879589
2242,133347.401733423
2243,138921.174099329
2244,115052.348759118
2245,110229.682090895
2246,154105.95860248
2247,129655.899760534
2248,137299.043255904
2249,133470.447856202
2250,137761.973813824
2251,119016.573597415
2252,192880.803507536
2253,151538.332531818
2254,170801.930295391
2255,195519.22270162
2256,187719.439248588
2257,207940.701207773
2258,167069.334741893
2259,172303.340094048
2260,164147.484774859
2261,188149.708250955
2262,215000.714352268
2263,342189.618971912
2264,449126.315368291
2265,179107.81130014
2266,311499.940373862
2267,355784.802397366
2268,425030.380137193
2269,159828.636870577
2270,210977.142086784
2271,233280.200683945
2272,215733.729765804
2273,175240.099221092
2274,183131.457951208
2275,179603.23846961
2276,198649.755749545
2277,194477.826804589
2278,155243.320574162
2279,138266.194002306
2280,129797.561931908
2281,169210.363219076
2282,189846.424347696
2283,118632.541018189
2284,126031.654391044
2285,156194.352311963
2286,126034.757687017
2287,364099.958144344
2288,276872.95298133
2289,327149.430625477
2290,426402.405349006
2291,322284.629646703
2292,452867.289377945
2293,441298.404956954
2294,387536.564435738
2295,483157.429156092
2296,271187.545709005
2297,330176.170292648
2298,349528.098551852
2299,350138.204061502
2300,325168.510906308
2301,298650.274715036
2302,246584.25067294
2303,247555.519221198
2304,248284.752866628
2305,189811.681006368
2306,192679.510257929
2307,191280.147994851
2308,231140.184960748
2309,319779.083091118
2310,213803.088517081
2311,208054.23701746
2312,180668.431025174
2313,184514.428063492
2314,181191.271701985
2315,182328.729155892
2316,195687.734879859
2317,192961.741606956
2318,175262.373311593
2319,185517.608031176
2320,192335.07315543
2321,245998.215774451
2322,192788.83193701
2323,190745.086046899
2324,192505.540306878
2325,215915.370394297
2326,183448.826398879
2327,215142.944027478
2328,233143.189965539
2329,190629.138104594
2330,181420.42451477
2331,336545.569496946
2332,390913.477963066
2333,313321.522042268
2334,249030.422772308
2335,284857.994094571
2336,316295.808362319
2337,202141.446472056
2338,272833.266574543
2339,241364.194594935
2340,445299.873697456
2341,213209.8830479
2342,242710.576117256
2343,232054.721630174
2344,222313.763197166
2345,246266.750035892
2346,219127.852739752
2347,191368.744751227
2348,240548.942925753
2349,172381.346958953
2350,305136.01090618
2351,264076.55313315
2352,256092.050806699
2353,250357.83862081
2354,141483.546675516
2355,167927.939985126
2356,171883.617982874
2357,199932.842577737
2358,198290.448911806
2359,135631.647818531
2360,116046.92377095
2361,152049.903321423
2362,275390.889343141
2363,140648.105250509
2364,185866.49094844
2365,229180.730226358
2366,193470.003082411
2367,217372.54313768
2368,219505.664605321
2369,214504.933880807
2370,159714.527784625
2371,165493.419143459
2372,189195.067552507
2373,297178.251056449
2374,331292.435726454
2375,237350.158535527
2376,297602.747234338
2377,337682.254183974
2378,141801.217396867
2379,220667.734112574
2380,152635.894498959
2381,170740.781163359
2382,214061.208638792
2383,213572.221616639
2384,252721.310645425
2385,167882.964109333
2386,132223.13882538
2387,136549.318775242
2388,112304.112881183
2389,132071.397698896
2390,137464.200623751
2391,154548.453840559
2392,115968.352514255
2393,175093.609301638
2394,134231.188756867
2395,211104.025575839
2396,148682.531613226
2397,229325.688471168
2398,126995.021095703
2399,64524.4704727742
2400,66447.4362790087
2401,126268.036065601
2402,136129.621646694
2403,150336.924351599
2404,150521.574602145
2405,156918.220997875
2406,147056.571021675
2407,130240.280082317
2408,155342.407269947
2409,122655.718639847
2410,197449.609119394
2411,110147.3460044
2412,158236.602325782
2413,122147.833323935
2414,160440.847144269
2415,135058.195994451
2416,131266.868820356
2417,135479.011586648
2418,134096.397100086
2419,118679.714783799
2420,127019.990165955
2421,169500.929042452
2422,108718.218564999
2423,122419.301606683
2424,162467.391334084
2425,239760.337219367
2426,149800.545252524
2427,131271.418771142
2428,181702.379056766
2429,123190.707000407
2430,137661.359906141
2431,106342.705311072
2432,144945.909487967
2433,145841.513289363
2434,134066.076561006
2435,159939.564285185
2436,106163.236751363
2437,106270.915174609
2438,115086.573371014
2439,114848.671543495
2440,125921.096372303
2441,106777.698347519
2442,99993.9760234398
2443,141953.984807072
2444,135103.820807091
2445,88778.3783531719
2446,142455.251753075
2447,209933.10220594
2448,142290.488904699
2449,114520.522818253
2450,156869.499010775
2451,132896.925125098
2452,199607.869395641
2453,102295.759358642
2454,133117.035893727
2455,122018.998129425
2456,140375.932261223
2457,124193.396418062
2458,135507.760546688
2459,111732.436854318
2460,137165.282050318
2461,126184.059973415
2462,135051.758379415
2463,124074.462336199
2464,180333.06406659
2465,139213.100999452
2466,106320.310255498
2467,153951.996228257
2468,72825.7371798325
2469,72465.6911788821
2470,198811.01076658
2471,225686.745570803
2472,178310.30197977
2473,120805.996205654
2474,73698.6244949265
2475,233871.142445717
2476,105883.652878455
2477,114199.335600117
2478,163175.870057943
2479,107304.633624686
2480,151207.517866057
2481,117852.35586048
2482,125878.350634267
2483,109074.541979214
2484,118664.206080348
2485,135240.344635733
2486,145744.125803014
2487,177794.687195938
2488,183172.904065896
2489,153974.606578568
2490,152659.253699081
2491,106568.605540497
2492,187211.93430711
2493,157008.887796064
2494,164014.098970158
2495,105586.414588927
2496,236788.124397501
2497,168210.992717839
2498,103080.198666428
2499,99935.4376158254
2500,123520.311095516
2501,145137.464446627
2502,154582.170330117
2503,91688.9399798844
2504,205090.916682807
2505,225223.820889443
2506,258654.655706724
2507,286166.048059447
2508,258865.912033223
2509,224202.455934358
2510,241195.930803989
2511,186019.389905431
2512,208596.71758179
2513,231287.640179279
2514,257192.507939362
2515,151337.184028493
2516,176232.145915044
2517,155372.367947407
2518,154651.635951035
2519,229772.968585016
2520,216169.779736715
2521,197020.12508494
2522,230637.391748629
2523,127893.428518251
2524,135298.473265432
2525,152447.815865897
2526,143068.364652223
2527,114773.251125582
2528,126660.683017769
2529,145977.503803748
2530,139781.897994534
2531,252390.628357253
2532,234347.925852411
2533,203653.252254267
2534,249601.129004723
2535,303854.598434545
2536,248458.809270761
2537,247918.520082996
2538,187654.020648436
2539,199484.647219321
2540,183272.656187344
2541,193846.759908828
2542,167960.517276717
2543,134447.797226557
2544,129295.479460673
2545,139756.982319284
2546,142104.152540691
2547,150698.433201756
2548,174499.794582392
2549,162006.114251891
2550,292824.900436093
2551,141772.339938257
2552,130006.311671401
2553,72029.7408080923
2554,107208.368885188
2555,121142.28508118
2556,103757.538824116
2557,112743.37610965
2558,138371.535293202
2559,120027.418466984
2560,136099.785480181
2561,147400.498389758
2562,130457.41605706
2563,139716.277422373
2564,180703.737952856
2565,132876.951124177
2566,148274.026239297
2567,112928.622068274
2568,199528.518155174
2569,205801.614410523
2570,130007.013520487
2571,184172.22091615
2572,174919.858268788
2573,225576.712880165
2574,272674.423285991
2575,148127.891189949
2576,131916.734138604
2577,162290.549578853
2578,93929.1083436677
2579,78143.7588360674
2580,112323.001220083
2581,136949.361238942
2582,141558.735818106
2583,262770.905218723
2584,180351.196842341
2585,201140.048792075
2586,237238.389966665
2587,210098.750517586
2588,142090.240728228
2589,156418.042138267
2590,224764.668256614
2591,237911.13479587
2592,213532.5691335
2593,265487.436363381
2594,194092.263877424
2595,235309.901388704
2596,308183.830654113
2597,201144.706043106
2598,270183.543903488
2599,398592.126254313
2600,213232.786790527
2601,152815.908421358
2602,82856.426296533
2603,97681.5432598572
2604,99815.06304883
2605,77082.5378064453
2606,152733.156643965
2607,106352.042167376
2608,223931.235451487
2609,178991.170100825
2610,124499.577724847
2611,149894.65388027
2612,160890.193752662
2613,142845.45906796
2614,129059.679584279
2615,149237.057978234
2616,163397.914901358
2617,200732.236948269
2618,253856.644850882
2619,212139.460350884
2620,182656.884025612
2621,174943.431099715
2622,181738.867598389
2623,252734.819956998
2624,275469.807517348
2625,281279.260650111
2626,181178.398868722
2627,167740.280612917
2628,404566.100114496
2629,484027.107490391
2630,346669.32973437
2631,465861.11207261
2632,382710.307324627
2633,311030.857539091
2634,398461.790316518
2635,166616.153609112
2636,189269.12464881
2637,199223.768890561
2638,257325.058927832
2639,189189.421384075
2640,157422.874296319
2641,103606.072394449
2642,191699.017359709
2643,105545.019285705
2644,136100.458708821
2645,121594.717670018
2646,101126.428272582
2647,111362.439840911
2648,145831.401906149
2649,154835.66690058
2650,145482.161840855
2651,140183.989801697
2652,397125.140133137
2653,259110.024616643
2654,248732.103623892
2655,398741.076077047
2656,322546.187275422
2657,366075.253163726
2658,303059.570978299
2659,294552.264339802
2660,337477.782282903
2661,358201.851557738
2662,374901.487275023
2663,280193.851992793
2664,310868.449316615
2665,349198.384222429
2666,307345.653594096
2667,180503.060149933
2668,188421.394711786
2669,180336.652874081
2670,277127.381646124
2671,188449.201354924
2672,195005.448736233
2673,210371.900082613
2674,212087.53410657
2675,172207.842902311
2676,203077.331667256
2677,203140.287091648
2678,243411.097920184
2679,276874.444611875
2680,280923.840289747
2681,410905.50677917
2682,313282.0441951
2683,456534.928646316
2684,301206.236712622
2685,314800.434710226
2686,257592.558630766
2687,309711.692320546
2688,226531.412248982
2689,215883.410754139
2690,411191.170631917
2691,187466.634033268
2692,152165.116360059
2693,200261.159600749
2694,152515.90293053
2695,199905.712023735
2696,191919.796344353
2697,183327.353838356
2698,204174.891504411
2699,178120.723874976
2700,157554.549240138
2701,161118.896003628
2702,111463.965779074
2703,148205.944307439
2704,149661.440490502
2705,115634.756432623
2706,116270.640277168
2707,126505.519218437
2708,132880.275287704
2709,117653.759785516
2710,129541.415077216
2711,317394.441144508
2712,370738.147379129
2713,174107.877361856
2714,155473.482224853
2715,167959.607258026
2716,150041.254773673
2717,191972.758977655
2718,229955.156362721
2719,152524.569613909
2720,186565.494021075
2721,134018.795139248
2722,172873.63744062
2723,166506.047319422
2724,128356.564797772
2725,127511.31820848
2726,147009.160072255
2727,186852.875560342
2728,175053.791074835
2729,149494.390090436
2730,152913.445898775
2731,135229.391073937
2732,130599.158480012
2733,168268.865706823
2734,159737.064780705
2735,133895.538539568
2736,148365.587891765
2737,117302.391641933
2738,141114.68481499
2739,163222.065608622
2740,138620.202819055
2741,146682.382942808
2742,163517.40087473
2743,155002.251624872
2744,160961.067615159
2745,158567.245038035
2746,133050.532648838
2747,155516.891454261
2748,130377.652861152
2749,133537.418082547
2750,129199.344672613
2751,131436.982939003
2752,219040.710396628
2753,151780.008872504
2754,250833.075295142
2755,135652.635896299
2756,105848.262358824
2757,73636.4156071781
2758,83279.7801152534
2759,153809.748635016
2760,128010.018213217
2761,143308.545645287
2762,143584.87605865
2763,204482.94470937
2764,170219.921500823
2765,271385.018141421
2766,147875.744327746
2767,81521.5664951667
2768,124776.553056082
2769,127176.852995898
2770,156789.91652682
2771,115931.76642658
2772,106673.687491036
2773,158795.290844664
2774,147101.135532821
2775,128122.827586226
2776,144782.302352787
2777,143026.083134335
2778,135576.163208891
2779,126117.176327054
2780,104802.01203317
2781,96166.2792026594
2782,96445.8159923707
2783,97714.2277937956
2784,121373.169488703
2785,136425.446181463
2786,66950.3800716459
2787,133421.048448807
2788,68377.5408917238
2789,167836.047902557
2790,99822.653838137
2791,114579.013269644
2792,56849.5709936762
2793,157381.491104253
2794,101256.462351663
2795,120539.015393643
2796,84416.0696958196
2797,222162.362434656
2798,109814.334570597
2799,109194.172214356
2800,72916.9171065824
2801,112171.019390288
2802,131257.643691157
2803,173320.398455492
2804,143567.351615611
2805,112733.535354867
2806,72684.6670145284
2807,170205.132636019
2808,155131.299861062
2809,134851.881648726
2810,136142.858629162
2811,160806.445108025
2812,162933.600554987
2813,165985.690524044
2814,165948.221565138
2815,96653.3401125341
2816,243129.316384596
2817,159328.751556914
2818,139490.173317625
2819,178814.471182339
2820,145806.19803113
2821,121611.946000578
2822,200361.582470594
2823,337498.669602998
2824,181828.992737114
2825,157988.237292629
2826,138425.548755057
2827,138598.733221141
2828,253873.908349418
2829,220777.687357538
2830,227848.099818396
2831,197738.403911098
2832,248357.845385899
2833,299861.653165772
2834,213679.208061044
2835,227654.124390167
2836,201509.027059978
2837,170549.207147489
2838,150605.587763396
2839,182749.308428779
2840,200744.270219269
2841,211502.592886012
2842,232691.866312923
2843,158819.023494881
2844,167036.254063602
2845,135094.392670386
2846,216836.189139809
2847,197843.763411013
2848,238937.518855636
2849,206640.229479392
2850,284913.888087858
2851,229972.733150846
2852,234961.613601362
2853,237213.869059679
2854,150984.441221595
2855,213358.892358427
2856,203134.061579074
2857,197036.11311599
2858,210933.430792461
2859,118392.974879665
2860,131689.853787189
2861,140397.393610429
2862,209809.83663148
2863,149088.734260124
2864,262834.422708912
2865,134989.576068743
2866,178990.919911397
2867,106939.68456315
2868,99847.6834545631
2869,117173.580367797
2870,145314.817404679
2871,95034.1033051333
2872,47355.8052473882
2873,111590.831157326
2874,134420.37917377
2875,125292.277565402
2876,184348.577158711
2877,139819.284241089
2878,167256.747096995
2879,139277.755829876
2880,99239.6380322138
2881,135123.828145737
2882,166074.023124963
2883,188537.19751523
2884,192831.363274719
2885,163903.723615675
2886,237004.547041036
2887,111035.083789535
2888,140965.915884316
2889,58355.93534366
2890,79228.4705057114
2891,145821.741059027
2892,76934.5510987569
2893,98352.7004466142
2894,67013.6458038361
2895,304306.401413922
2896,278378.156524008
2897,213774.433055283
2898,161656.672438694
2899,238664.514522344
2900,157151.349293895
2901,225449.311967942
2902,200183.565111728
2903,321608.520222683
2904,352166.344096725
2905,120199.298200667
2906,205349.100472613
2907,118600.565543853
2908,131883.139809726
2909,168375.769361735
2910,86925.1721428989
2911,82214.9803439906
2912,145499.152068614
2913,89641.0236423569
2914,80087.0831000638
2915,97321.3187196706
2916,89788.3511407223
2917,184790.326641135
2918,122082.148413031
2919,227860.345287015
